Traffic Light Controller/TLC.vcd
$date
	Thu Dec 02 20:30:52 2021
$end
$version
	Icarus Verilog
$end
$timescale
	1ns
$end
$scope module AND4 $end
$var wire 1 ! A $end
$var wire 1 " B $end
$var wire 1 # C $end
$var wire 1 $ D $end
$var wire 1 % Z $end
$upscope $end
$scope module AOI222 $end
$var wire 1 & A1 $end
$var wire 1 ' A2 $end
$var wire 1 ( B1 $end
$var wire 1 ) B2 $end
$var wire 1 * C1 $end
$var wire 1 + C2 $end
$var wire 1 , Z $end
$upscope $end
$scope module FFDC $end
$var wire 1 - CK $end
$var wire 1 . CLR $end
$var wire 1 / D $end
$var wire 1 0 Q $end
$upscope $end
$scope module FFDP $end
$var wire 1 1 CK $end
$var wire 1 2 D $end
$var wire 1 3 PRE $end
$var wire 1 4 Q $end
$upscope $end
$scope module FFDPC $end
$var wire 1 5 CK $end
$var wire 1 6 CLR $end
$var wire 1 7 D $end
$var wire 1 8 PRE $end
$var wire 1 9 Q $end
$upscope $end
$scope module FFDPCb $end
$var wire 1 : CK $end
$var wire 1 ; CLR $end
$var wire 1 < D $end
$var wire 1 = PRE $end
$var reg 1 > Q $end
$upscope $end
$scope module FFDb $end
$var wire 1 ? CK $end
$var wire 1 @ D $end
$var reg 1 A Q $end
$upscope $end
$scope module HI $end
$var wire 1 B HI $end
$upscope $end
$scope module LO $end
$var wire 1 C LO $end
$upscope $end
$scope module MUX21 $end
$var wire 1 D D0 $end
$var wire 1 E D1 $end
$var wire 1 F S $end
$var wire 1 G Z $end
$upscope $end
$scope module MUX41 $end
$var wire 1 H D0 $end
$var wire 1 I D1 $end
$var wire 1 J D2 $end
$var wire 1 K D3 $end
$var wire 1 L S0 $end
$var wire 1 M S1 $end
$var wire 1 N Z $end
$upscope $end
$scope module NAND4 $end
$var wire 1 O A $end
$var wire 1 P B $end
$var wire 1 Q C $end
$var wire 1 R D $end
$var wire 1 S Z $end
$upscope $end
$scope module OAI222 $end
$var wire 1 T A1 $end
$var wire 1 U A2 $end
$var wire 1 V B1 $end
$var wire 1 W B2 $end
$var wire 1 X C1 $end
$var wire 1 Y C2 $end
$var wire 1 Z Z $end
$upscope $end
$scope module OR4 $end
$var wire 1 [ A $end
$var wire 1 \ B $end
$var wire 1 ] C $end
$var wire 1 ^ D $end
$var wire 1 _ Z $end
$upscope $end
$scope module TLC_test $end
$var wire 1 ` MA $end
$var wire 1 a MA_rtl $end
$var wire 1 b MG $end
$var wire 1 c MG_rtl $end
$var wire 1 d MR $end
$var wire 1 e MR_rtl $end
$var wire 1 f MY $end
$var wire 1 g MY_rtl $end
$var wire 1 h SG $end
$var wire 1 i SG_rtl $end
$var wire 1 j SR $end
$var wire 1 k SR_rtl $end
$var wire 4 l STATE [3:0] $end
$var wire 4 m STATE_rtl [3:0] $end
$var wire 1 n SY $end
$var wire 1 o SY_rtl $end
$var reg 1 p MD $end
$var reg 1 q SD $end
$var reg 1 r clk $end
$var reg 1 s clr $end
$scope module tr $end
$var wire 1 t CLK $end
$var wire 1 u CLR $end
$var wire 1 a MA $end
$var wire 1 v MD $end
$var wire 1 c MG $end
$var wire 1 e MR $end
$var wire 1 g MY $end
$var wire 1 w SD $end
$var wire 1 i SG $end
$var wire 1 k SR $end
$var wire 4 x STATE [3:0] $end
$var wire 1 o SY $end
$var reg 4 y Q [3:0] $end
$var reg 4 z QN [3:0] $end
$upscope $end
$scope module tg $end
$var wire 1 t CLK $end
$var wire 1 u CLR $end
$var wire 1 ` MA $end
$var wire 1 v MD $end
$var wire 1 b MG $end
$var wire 1 d MR $end
$var wire 1 f MY $end
$var wire 4 { Q [3:0] $end
$var wire 4 | QN [3:0] $end
$var wire 1 w SD $end
$var wire 1 h SG $end
$var wire 1 j SR $end
$var wire 4 } STATE [3:0] $end
$var wire 1 n SY $end
$var wire 1 ~ _000_ $end
$var wire 1 !" _001_ $end
$var wire 1 "" _002_ $end
$var wire 1 #" _003_ $end
$var wire 1 $" _004_ $end
$var wire 1 %" _005_ $end
$var wire 1 &" _006_ $end
$var wire 1 '" _007_ $end
$var wire 1 (" _008_ $end
$var wire 1 )" _009_ $end
$var wire 1 *" _010_ $end
$var wire 1 +" _011_ $end
$var wire 1 ," _012_ $end
$var wire 1 -" _013_ $end
$var wire 1 ." _014_ $end
$var wire 1 /" _015_ $end
$var wire 1 0" _016_ $end
$var wire 1 1" _017_ $end
$var wire 1 2" _018_ $end
$var wire 1 3" _019_ $end
$var wire 1 4" _020_ $end
$var wire 1 5" _021_ $end
$var wire 1 6" _022_ $end
$var wire 1 7" _023_ $end
$var wire 1 8" _024_ $end
$var wire 1 9" _025_ $end
$var wire 1 :" _026_ $end
$var wire 1 ;" _027_ $end
$var wire 1 <" _028_ $end
$var wire 1 =" _029_ $end
$var wire 1 >" _030_ $end
$var wire 1 ?" _031_ $end
$var wire 1 @" _032_ $end
$var wire 1 A" _033_ $end
$var wire 1 B" _034_ $end
$var wire 1 C" _035_ $end
$var wire 1 D" _036_ $end
$var wire 1 E" _037_ $end
$var wire 1 F" _038_ $end
$var wire 1 G" _039_ $end
$var wire 1 H" _040_ $end
$var wire 1 I" _041_ $end
$var wire 1 J" _042_ $end
$var wire 1 K" _043_ $end
$var wire 1 L" _044_ $end
$var wire 1 M" _045_ $end
$var wire 1 N" _046_ $end
$var wire 1 O" _047_ $end
$var wire 1 P" _048_ $end
$var wire 1 Q" _049_ $end
$var wire 1 R" _050_ $end
$var wire 1 S" _051_ $end
$var wire 1 T" _052_ $end
$var wire 1 U" _053_ $end
$var wire 1 V" _054_ $end
$var wire 1 W" _055_ $end
$scope module _056_ $end
$var wire 1 X" A $end
$var wire 1 ~ Z $end
$upscope $end
$scope module _057_ $end
$var wire 1 Y" A $end
$var wire 1 Z" B $end
$var wire 1 !" Z $end
$upscope $end
$scope module _058_ $end
$var wire 1 !" A $end
$var wire 1 ~ B $end
$var wire 1 "" Z $end
$upscope $end
$scope module _059_ $end
$var wire 1 [" A $end
$var wire 1 #" Z $end
$upscope $end
$scope module _060_ $end
$var wire 1 \" A $end
$var wire 1 ]" B $end
$var wire 1 $" Z $end
$upscope $end
$scope module _061_ $end
$var wire 1 ^" A $end
$var wire 1 v B $end
$var wire 1 #" C $end
$var wire 1 $" D $end
$var wire 1 %" Z $end
$upscope $end
$scope module _062_ $end
$var wire 1 _" A $end
$var wire 1 &" Z $end
$upscope $end
$scope module _063_ $end
$var wire 1 &" A $end
$var wire 1 `" B $end
$var wire 1 '" Z $end
$upscope $end
$scope module _064_ $end
$var wire 1 w A $end
$var wire 1 v B $end
$var wire 1 (" Z $end
$upscope $end
$scope module _065_ $end
$var wire 1 (" A $end
$var wire 1 ~ B $end
$var wire 1 a" C $end
$var wire 1 )" Z $end
$upscope $end
$scope module _066_ $end
$var wire 1 )" A1 $end
$var wire 1 '" A2 $end
$var wire 1 %" B $end
$var wire 1 *" Z $end
$upscope $end
$scope module _067_ $end
$var wire 1 b" A $end
$var wire 1 c" B $end
$var wire 1 +" Z $end
$upscope $end
$scope module _068_ $end
$var wire 1 +" A $end
$var wire 1 !" B $end
$var wire 1 ," Z $end
$upscope $end
$scope module _069_ $end
$var wire 1 ," A $end
$var wire 1 (" B $end
$var wire 1 -" Z $end
$upscope $end
$scope module _070_ $end
$var wire 1 $" A $end
$var wire 1 &" B $end
$var wire 1 f Z $end
$upscope $end
$scope module _071_ $end
$var wire 1 f A $end
$var wire 1 #" B $end
$var wire 1 ." Z $end
$upscope $end
$scope module _072_ $end
$var wire 1 ." A $end
$var wire 1 -" B $end
$var wire 1 *" C $end
$var wire 1 /" Z $end
$upscope $end
$scope module _073_ $end
$var wire 1 v A $end
$var wire 1 0" Z $end
$upscope $end
$scope module _074_ $end
$var wire 1 d" A $end
$var wire 1 0" B $end
$var wire 1 #" C $end
$var wire 1 $" D $end
$var wire 1 1" Z $end
$upscope $end
$scope module _075_ $end
$var wire 1 e" A $end
$var wire 1 v B $end
$var wire 1 2" Z $end
$upscope $end
$scope module _076_ $end
$var wire 1 w A $end
$var wire 1 f" B $end
$var wire 1 3" Z $end
$upscope $end
$scope module _077_ $end
$var wire 1 2" A $end
$var wire 1 &" B $end
$var wire 1 g" C $end
$var wire 1 3" D $end
$var wire 1 4" Z $end
$upscope $end
$scope module _078_ $end
$var wire 1 4" A $end
$var wire 1 1" B $end
$var wire 1 5" Z $end
$upscope $end
$scope module _079_ $end
$var wire 1 h" A $end
$var wire 1 i" B $end
$var wire 1 6" Z $end
$upscope $end
$scope module _080_ $end
$var wire 1 6" A $end
$var wire 1 j" B $end
$var wire 1 k" C $end
$var wire 1 7" Z $end
$upscope $end
$scope module _081_ $end
$var wire 1 7" A $end
$var wire 1 8" Z $end
$upscope $end
$scope module _082_ $end
$var wire 1 8" A $end
$var wire 1 5" B $end
$var wire 1 /" C $end
$var wire 1 9" Z $end
$upscope $end
$scope module _083_ $end
$var wire 1 l" A $end
$var wire 1 m" B $end
$var wire 1 :" Z $end
$upscope $end
$scope module _084_ $end
$var wire 1 :" A $end
$var wire 1 &" B $end
$var wire 1 n" C $end
$var wire 1 ;" Z $end
$upscope $end
$scope module _085_ $end
$var wire 1 ;" A $end
$var wire 1 4" B $end
$var wire 1 1" C $end
$var wire 1 <" Z $end
$upscope $end
$scope module _086_ $end
$var wire 1 w A $end
$var wire 1 o" B $end
$var wire 1 =" Z $end
$upscope $end
$scope module _087_ $end
$var wire 1 &" A $end
$var wire 1 p" B $end
$var wire 1 q" C $end
$var wire 1 =" D $end
$var wire 1 >" Z $end
$upscope $end
$scope module _088_ $end
$var wire 1 >" A $end
$var wire 1 7" B $end
$var wire 1 ?" Z $end
$upscope $end
$scope module _089_ $end
$var wire 1 r" A $end
$var wire 1 @" Z $end
$upscope $end
$scope module _090_ $end
$var wire 1 s" A $end
$var wire 1 t" B $end
$var wire 1 ` Z $end
$upscope $end
$scope module _091_ $end
$var wire 1 ` A $end
$var wire 1 &" B $end
$var wire 1 @" C $end
$var wire 1 A" Z $end
$upscope $end
$scope module _092_ $end
$var wire 1 =" A $end
$var wire 1 u" B $end
$var wire 1 @" C $end
$var wire 1 B" Z $end
$upscope $end
$scope module _093_ $end
$var wire 1 B" A1 $end
$var wire 1 #" A2 $end
$var wire 1 A" B $end
$var wire 1 C" Z $end
$upscope $end
$scope module _094_ $end
$var wire 1 C" A $end
$var wire 1 ?" B $end
$var wire 1 <" C $end
$var wire 1 D" Z $end
$upscope $end
$scope module _095_ $end
$var wire 1 D" A1 $end
$var wire 1 v" A2 $end
$var wire 1 9" B $end
$var wire 1 E" Z $end
$upscope $end
$scope module _096_ $end
$var wire 1 ," A $end
$var wire 1 0" B $end
$var wire 1 F" Z $end
$upscope $end
$scope module _097_ $end
$var wire 1 :" A $end
$var wire 1 !" B $end
$var wire 1 G" Z $end
$upscope $end
$scope module _098_ $end
$var wire 1 G" A $end
$var wire 1 F" B $end
$var wire 1 u C $end
$var wire 1 H" Z $end
$upscope $end
$scope module _099_ $end
$var wire 1 E" A1 $end
$var wire 1 H" A2 $end
$var wire 1 "" B1 $end
$var wire 1 u B2 $end
$var wire 1 w" Z $end
$upscope $end
$scope module _100_ $end
$var wire 1 F" A $end
$var wire 1 I" Z $end
$upscope $end
$scope module _101_ $end
$var wire 1 G" A $end
$var wire 1 F" B $end
$var wire 1 J" Z $end
$upscope $end
$scope module _102_ $end
$var wire 1 D" A $end
$var wire 1 /" B $end
$var wire 1 x" C $end
$var wire 1 K" Z $end
$upscope $end
$scope module _103_ $end
$var wire 1 B" A $end
$var wire 1 #" B $end
$var wire 1 L" Z $end
$upscope $end
$scope module _104_ $end
$var wire 1 L" A $end
$var wire 1 ?" B $end
$var wire 1 ." C $end
$var wire 1 M" Z $end
$upscope $end
$scope module _105_ $end
$var wire 1 M" A1 $end
$var wire 1 K" A2 $end
$var wire 1 J" B $end
$var wire 1 N" Z $end
$upscope $end
$scope module _106_ $end
$var wire 1 N" A1 $end
$var wire 1 I" A2 $end
$var wire 1 u B $end
$var wire 1 y" Z $end
$upscope $end
$scope module _107_ $end
$var wire 1 D" A $end
$var wire 1 /" B $end
$var wire 1 z" C $end
$var wire 1 O" Z $end
$upscope $end
$scope module _108_ $end
$var wire 1 ?" A $end
$var wire 1 -" B $end
$var wire 1 P" Z $end
$upscope $end
$scope module _109_ $end
$var wire 1 P" A1 $end
$var wire 1 O" A2 $end
$var wire 1 J" B $end
$var wire 1 Q" Z $end
$upscope $end
$scope module _110_ $end
$var wire 1 G" A $end
$var wire 1 $" B $end
$var wire 1 R" Z $end
$upscope $end
$scope module _111_ $end
$var wire 1 R" A1 $end
$var wire 1 Q" A2 $end
$var wire 1 u B $end
$var wire 1 {" Z $end
$upscope $end
$scope module _112_ $end
$var wire 1 D" A $end
$var wire 1 /" B $end
$var wire 1 |" C $end
$var wire 1 S" Z $end
$upscope $end
$scope module _113_ $end
$var wire 1 S" A1 $end
$var wire 1 <" A2 $end
$var wire 1 H" B $end
$var wire 1 }" Z $end
$upscope $end
$scope module _114_ $end
$var wire 1 ~ A $end
$var wire 1 ~" B $end
$var wire 1 T" Z $end
$upscope $end
$scope module _115_ $end
$var wire 1 T" A1 $end
$var wire 1 !" A2 $end
$var wire 1 B" B $end
$var wire 1 U" Z $end
$upscope $end
$scope module _116_ $end
$var wire 1 !# A $end
$var wire 1 @" B $end
$var wire 1 V" Z $end
$upscope $end
$scope module _117_ $end
$var wire 1 =" A1 $end
$var wire 1 v A2 $end
$var wire 1 V" B $end
$var wire 1 W" Z $end
$upscope $end
$scope module _118_ $end
$var wire 1 W" A $end
$var wire 1 U" B $end
$var wire 1 b Z $end
$upscope $end
$scope module _119_ $end
$var wire 1 6" A $end
$var wire 1 "# B $end
$var wire 1 h Z $end
$upscope $end
$scope module _120_ $end
$var wire 1 $" A1 $end
$var wire 1 !" A2 $end
$var wire 1 #" B1 $end
$var wire 1 f B2 $end
$var wire 1 d Z $end
$upscope $end
$scope module _121_ $end
$var wire 1 6" A $end
$var wire 1 ## B $end
$var wire 1 j Z $end
$upscope $end
$scope module _122_ $end
$var wire 1 :" A $end
$var wire 1 &" B $end
$var wire 1 n Z $end
$upscope $end
$scope module _123_ $end
$var wire 1 t CK $end
$var wire 1 $# D $end
$var wire 1 %# Q $end
$upscope $end
$scope module _124_ $end
$var wire 1 t CK $end
$var wire 1 &# D $end
$var wire 1 '# Q $end
$upscope $end
$scope module _125_ $end
$var wire 1 t CK $end
$var wire 1 (# D $end
$var wire 1 )# Q $end
$upscope $end
$scope module _126_ $end
$var wire 1 t CK $end
$var wire 1 *# D $end
$var wire 1 +# Q $end
$upscope $end
$upscope $end
$upscope $end
$scope module XNOR $end
$var wire 1 ,# A $end
$var wire 1 -# B $end
$var wire 1 .# Z $end
$upscope $end
$scope module XOR $end
$var wire 1 /# A $end
$var wire 1 0# B $end
$var wire 1 1# Z $end
$upscope $end
$enddefinitions $end
#0
$dumpvars
x1#
z0#
z/#
x.#
z-#
z,#
z+#
x*#
z)#
z(#
z'#
z&#
z%#
x$#
z##
z"#
z!#
z~"
x}"
x|"
z{"
zz"
zy"
zx"
xw"
xv"
zu"
zt"
zs"
zr"
zq"
zp"
zo"
zn"
zm"
zl"
zk"
zj"
zi"
zh"
zg"
zf"
ze"
zd"
zc"
zb"
za"
z`"
z_"
z^"
z]"
z\"
z["
zZ"
zY"
zX"
xW"
xV"
xU"
xT"
xS"
xR"
xQ"
xP"
xO"
xN"
xM"
xL"
xK"
xJ"
xI"
zH"
xG"
xF"
xE"
xD"
xC"
xB"
xA"
z@"
x?"
x>"
z="
x<"
x;"
x:"
x9"
x8"
x7"
x6"
x5"
x4"
x3"
z2"
x1"
x0"
x/"
x."
x-"
x,"
x+"
x*"
x)"
z("
x'"
z&"
x%"
x$"
z#"
x""
x!"
z~
bz }
bxzzx |
bz {
b0 z
bx y
bx x
0w
0v
1u
0t
1s
0r
0q
0p
xo
xn
bx m
bz l
xk
xj
xi
xh
xg
xf
xe
xd
xc
xb
xa
x`
x_
z^
z]
z\
z[
xZ
zY
zX
zW
zV
zU
zT
xS
zR
zQ
zP
zO
xN
zM
zL
zK
zJ
zI
zH
xG
zF
zE
zD
0C
1B
xA
z@
z?
x>
z=
z<
z;
z:
z9
z8
z7
z6
z5
z4
z3
z2
z1
z0
z/
z.
z-
x,
z+
z*
z)
z(
z'
z&
x%
z$
z#
z"
z!
$end
#1
1="
12"
0("
10"
#2
0z"
0&#
0x"
0(#
04"
01"
0B"
0>"
0F"
0{"
0y"
bx00x |
#3
1L"
1I"
1H"
#4
15"
#5
0v"
0$#
0|"
0*#
0w"
0}"
b0 |
0O"
0K"
#6
1S"
#50
1e
0c
0g
0i
0a
1k
0o
b0 y
b0 m
b0 x
1r
1t
#52
0X"
0Y"
0Z"
0["
0\"
0]"
0^"
0_"
0`"
0a"
0b"
0c"
0d"
0e"
0f"
0g"
0h"
0i"
0j"
0k"
0l"
0m"
0n"
0o"
0p"
0q"
0r"
0s"
0t"
0u"
0~"
0!#
0"#
0##
0%#
0'#
0)#
0+#
b0 l
b0 }
b0 {
#53
0$"
03"
16"
1:"
1~
1#"
1&"
1@"
#54
07"
0)"
0;"
0%"
1R"
0h
0T"
0'"
0f
0n
0V"
1!"
0+"
0`
#55
1."
1G"
1,"
18"
1j
#56
0J"
1d
1U"
1?"
1*"
1W"
0""
#57
1-"
1<"
0A"
#58
1/"
1N"
1Q"
0b
#59
0P"
1C"
0M"
#60
1D"
#61
09"
#63
1E"
#100
b1 z
0r
0t
0s
0u
#102
1v"
1$#
1w"
b1 |
#104
0E"
#150
b10 z
1c
0e
b1 y
b1 m
b1 x
1r
1t
#153
1X"
1\"
1b"
1e"
1j"
1l"
1o"
1s"
1"#
1%#
b1 l
b1 }
b1 {
#154
0~
#155
1""
1$"
#156
1T"
#157
0v"
0$#
0w"
b0 |
0d
0R"
1)"
#158
0U"
#159
1z"
1&#
1b
1E"
1{"
b10 |
#160
1O"
#200
0r
0t
#250
b11 z
0e
b10 y
b10 m
b10 x
1r
1t
#252
0X"
0\"
0b"
0e"
0j"
0l"
0o"
0s"
0"#
0%#
b0 l
b0 }
b0 {
#253
1]"
1a"
1c"
1f"
1i"
1m"
1p"
1r"
1~"
0$"
1~
1'#
b10 l
b10 }
b10 {
#254
0)"
1R"
0T"
0@"
#255
1d
1$"
13"
0""
#256
0z"
0&#
0{"
b0 |
1U"
1V"
#257
1v"
1$#
0d
1w"
b1 |
0R"
#258
0b
0W"
#259
1z"
1&#
1b
0E"
1{"
b11 |
0O"
#260
1O"
#300
0r
0t
#350
b11 y
b11 m
b11 x
1r
1t
#353
1X"
1\"
1b"
1e"
1j"
1l"
1o"
1s"
1"#
1%#
b11 l
b11 }
b11 {
#354
1+"
0~
#355
1""
0:"
#356
0,"
#357
0v"
0$#
0-"
0w"
b10 |
0G"
#358
0H"
1P"
1R"
#359
1E"
1J"
#360
0z"
0&#
0{"
b0 |
0/"
#361
19"
0Q"
#363
1z"
1&#
1{"
b10 |
0E"
0O"
#365
1v"
1$#
1w"
b11 |
#400
0r
0t
#450
1r
1t
#500
0r
0t
#550
1r
1t
#600
0r
0t
#650
1r
1t
#700
0r
0t
#750
1r
1t
#800
0r
0t
#850
1r
1t
#900
0r
0t
#950
1r
1t
#1000
b100 z
1c
0r
0t
1p
1v
#1001
00"
#1002
1("
02"
#1003
1F"
#1004
0J"
0I"
1-"
#1005
1/"
#1006
1x"
1(#
1O"
1y"
b111 |
1Q"
0P"
1H"
#1007
1K"
#1008
0z"
0&#
0v"
0$#
0{"
0w"
b100 |
09"
#1010
1E"
#1011
0O"
#1050
b101 z
0c
0e
1g
b100 y
b100 m
b100 x
1r
1t
#1052
0X"
0\"
0b"
0e"
0j"
0l"
0o"
0s"
0"#
0]"
0a"
0c"
0f"
0i"
0m"
0p"
0r"
0~"
0%#
0'#
b0 l
b0 }
b0 {
#1053
1Y"
1^"
1_"
1d"
1h"
1u"
1!#
12"
0$"
03"
1:"
1~
1@"
1)#
b100 l
b100 }
b100 {
#1054
0!"
1G"
0V"
0&"
0+"
#1055
1,"
1d
#1056
0F"
0G"
1W"
1'"
1f
#1057
0H"
1I"
#1058
0d
1J"
0b
0."
#1059
0x"
0(#
1M"
0y"
b0 |
#1060
0N"
#1061
0/"
#1062
1x"
1(#
19"
1y"
b100 |
0K"
#1064
0E"
#1066
1v"
1$#
1w"
b101 |
#1100
0r
0t
#1150
b1001 z
1e
0g
b101 y
b101 m
b101 x
1r
1t
#1153
1X"
1\"
1b"
1e"
1j"
1l"
1o"
1s"
1"#
1%#
b101 l
b101 }
b101 {
#1154
0~
#1155
1$"
02"
#1156
0f
1T"
#1157
1."
#1158
1/"
1d
#1159
1K"
14"
#1160
0<"
05"
0M"
#1162
1|"
1*#
1}"
b1101 |
#1163
0D"
#1166
0K"
#1168
1N"
#1170
0x"
0(#
0y"
b1001 |
#1200
0r
0t
#1250
b0 z
1a
b1001 y
b1001 m
b1001 x
1r
1t
#1252
0Y"
0^"
0_"
0d"
0h"
0u"
0!#
0)#
b1 l
b1 }
b1 {
#1253
1Z"
1["
1`"
1g"
1k"
1n"
1q"
1t"
1##
1&"
1+#
b1001 l
b1001 }
b1001 {
#1254
04"
1`
0'"
0#"
#1255
1A"
#1256
15"
#1257
0C"
1<"
#1259
0|"
0*#
0}"
b1 |
09"
#1261
1E"
#1263
0v"
0$#
0w"
b0 |
#1300
0r
0t
#1350
b1 z
0a
b0 y
b0 m
b0 x
1r
1t
#1352
0X"
0\"
0b"
0e"
0j"
0l"
0o"
0s"
0"#
0Z"
0["
0`"
0g"
0k"
0n"
0q"
0t"
0##
0%#
0+#
b0 l
b0 }
b0 {
#1353
0$"
12"
1~
1#"
#1354
0T"
1!"
0`
#1355
1G"
#1356
0J"
0""
#1357
0A"
#1358
1v"
1$#
1w"
b1 |
1H"
#1359
1C"
#1360
1D"
#1362
0E"
#1400
0r
0t
#1450
b10 z
1c
0e
b1 y
b1 m
b1 x
1r
1t
#1453
1X"
1\"
1b"
1e"
1j"
1l"
1o"
1s"
1"#
1%#
b1 l
b1 }
b1 {
#1454
0~
#1455
1""
1$"
02"
#1456
1T"
#1457
0v"
0$#
0w"
b0 |
0d
0R"
#1458
0U"
#1459
1z"
1&#
1b
1E"
1{"
b10 |
#1460
1O"
#1500
0r
0t
#1550
b11 z
0e
b10 y
b10 m
b10 x
1r
1t
#1552
0X"
0\"
0b"
0e"
0j"
0l"
0o"
0s"
0"#
0%#
b0 l
b0 }
b0 {
#1553
1]"
1a"
1c"
1f"
1i"
1m"
1p"
1r"
1~"
0$"
12"
1~
1'#
b10 l
b10 }
b10 {
#1554
1R"
0T"
0@"
#1555
1d
1$"
13"
0""
#1556
0z"
0&#
0{"
b0 |
1U"
1V"
#1557
1v"
1$#
0d
1w"
b1 |
0R"
#1558
0b
0W"
#1559
1z"
1&#
1b
0E"
1{"
b11 |
0O"
#1560
1O"
#1600
0r
0t
#1650
b100 z
1c
b11 y
b11 m
b11 x
1r
1t
#1653
1X"
1\"
1b"
1e"
1j"
1l"
1o"
1s"
1"#
1%#
b11 l
b11 }
b11 {
#1654
1+"
0~
#1655
1""
02"
0:"
#1656
0,"
#1657
0v"
0$#
0w"
b10 |
0G"
#1658
0H"
1R"
1F"
#1659
0I"
1E"
#1660
0z"
0&#
0{"
b0 |
#1661
1x"
1(#
1y"
b100 |
1H"
#1662
1K"
#1663
0O"
#1700
0r
0t
#1750
b101 z
0c
0e
1g
b100 y
b100 m
b100 x
1r
1t
#1752
0X"
0\"
0b"
0e"
0j"
0l"
0o"
0s"
0"#
0]"
0a"
0c"
0f"
0i"
0m"
0p"
0r"
0~"
0%#
0'#
b0 l
b0 }
b0 {
#1753
1Y"
1^"
1_"
1d"
1h"
1u"
1!#
12"
0$"
03"
1:"
1~
1@"
1)#
b100 l
b100 }
b100 {
#1754
0!"
1G"
0V"
0&"
0+"
#1755
1,"
1d
#1756
0F"
0G"
1W"
1'"
1f
#1757
0H"
1I"
#1758
0d
1J"
0b
0."
#1759
0x"
0(#
1M"
0y"
b0 |
#1760
0N"
#1761
0/"
#1762
1x"
1(#
19"
1y"
b100 |
0K"
#1764
0E"
#1766
1v"
1$#
1w"
b101 |
#1800
0r
0t
#1850
b1001 z
1e
0g
b101 y
b101 m
b101 x
1r
1t
#1853
1X"
1\"
1b"
1e"
1j"
1l"
1o"
1s"
1"#
1%#
b101 l
b101 }
b101 {
#1854
0~
#1855
1$"
02"
#1856
0f
1T"
#1857
1."
#1858
1/"
1d
#1859
1K"
14"
#1860
0<"
05"
0M"
#1862
1|"
1*#
1}"
b1101 |
#1863
0D"
#1866
0K"
#1868
1N"
#1870
0x"
0(#
0y"
b1001 |
#1900
b1 z
0r
0t
0p
0v
#1901
0("
12"
10"
#1902
04"
#1904
15"
1)"
#1905
1<"
#1906
1D"
0*"
#1907
0|"
0*#
0}"
b1 |
09"
#1909
0/"
#1910
19"
#1950
b10 z
1c
0e
b1 y
b1 m
b1 x
1r
1t
#1952
0Y"
0^"
0_"
0d"
0h"
0u"
0!#
0)#
b1 l
b1 }
b1 {
#1953
1&"
#1954
0'"
1!"
#1955
1G"
#1956
0J"
1*"
0U"
0d
#1957
1/"
1b
0R"
#1958
1H"
#1959
1z"
1&#
1{"
b11 |
#1960
0v"
0$#
1O"
0w"
b10 |
09"
#1962
1E"
#2000
0r
0t
#2050
b11 z
0e
b10 y
b10 m
b10 x
1r
1t
#2052
0X"
0\"
0b"
0e"
0j"
0l"
0o"
0s"
0"#
0%#
b0 l
b0 }
b0 {
#2053
1]"
1a"
1c"
1f"
1i"
1m"
1p"
1r"
1~"
0$"
1~
1'#
b10 l
b10 }
b10 {
#2054
0)"
1R"
0T"
0@"
#2055
1d
1$"
13"
0""
#2056
0z"
0&#
0{"
b0 |
1U"
1V"
#2057
1v"
1$#
0d
1w"
b1 |
0R"
#2058
0b
0W"
#2059
1z"
1&#
1b
0E"
1{"
b11 |
0O"
#2060
1O"
#2100
0r
0t
#2150
b11 y
b11 m
b11 x
1r
1t
#2153
1X"
1\"
1b"
1e"
1j"
1l"
1o"
1s"
1"#
1%#
b11 l
b11 }
b11 {
#2154
1+"
0~
#2155
1""
0:"
#2156
0,"
#2157
0v"
0$#
0-"
0w"
b10 |
0G"
#2158
0H"
1P"
1R"
#2159
1E"
1J"
#2160
0z"
0&#
0{"
b0 |
0/"
#2161
19"
0Q"
#2163
1z"
1&#
1{"
b10 |
0E"
0O"
#2165
1v"
1$#
1w"
b11 |
#2200
0r
0t
#2250
1r
1t
#2300
0r
0t
#2350
1r
1t
#2400
b100 z
1c
0r
0t
1q
1w
#2402
1("
0="
#2404
1W"
1-"
#2405
1/"
1B"
#2406
1O"
0b
0P"
#2407
0C"
0L"
0U"
#2408
1M"
1b
09"
#2410
0N"
0D"
#2412
1x"
1(#
1y"
b111 |
1E"
#2413
0O"
#2414
0v"
0$#
0w"
b110 |
#2415
1Q"
#2417
0z"
0&#
0{"
b100 |
#2450
b101 z
0c
0e
1g
b100 y
b100 m
b100 x
1r
1t
#2452
0X"
0\"
0b"
0e"
0j"
0l"
0o"
0s"
0"#
0]"
0a"
0c"
0f"
0i"
0m"
0p"
0r"
0~"
0%#
0'#
b0 l
b0 }
b0 {
#2453
1Y"
1^"
1_"
1d"
1h"
1u"
1!#
1="
0$"
1:"
1~
1@"
1)#
b100 l
b100 }
b100 {
#2454
0!"
1G"
0B"
0V"
0&"
0+"
#2455
0J"
1L"
1,"
1d
#2456
1C"
0G"
1U"
1'"
1f
#2457
1D"
1N"
#2458
1K"
0d
1J"
0b
0."
0M"
#2459
0x"
0(#
1M"
0y"
b0 |
#2460
0N"
#2461
0/"
#2462
1x"
1(#
19"
1y"
b100 |
0K"
#2464
0E"
#2466
1v"
1$#
1w"
b101 |
#2500
0r
0t
#2550
b110 z
1e
0g
b101 y
b101 m
b101 x
1r
1t
#2553
1X"
1\"
1b"
1e"
1j"
1l"
1o"
1s"
1"#
1%#
b101 l
b101 }
b101 {
#2554
0~
#2555
1$"
0="
#2556
0f
1T"
#2557
1."
#2558
1/"
1d
#2559
1K"
1>"
#2560
0?"
0M"
#2561
1M"
1P"
09"
#2563
0Q"
0D"
#2565
1z"
1&#
1{"
b111 |
1E"
#2566
0K"
#2567
0v"
0$#
0w"
b110 |
#2600
0r
0t
#2650
b111 z
1e
1i
0g
0k
b110 y
b110 m
b110 x
1r
1t
#2652
0X"
0\"
0b"
0e"
0j"
0l"
0o"
0s"
0"#
0%#
b100 l
b100 }
b100 {
#2653
1]"
1a"
1c"
1f"
1i"
1m"
1p"
1r"
1~"
0$"
1="
1~
1'#
b110 l
b110 }
b110 {
#2654
0>"
0T"
0@"
#2655
1$"
06"
1f
#2656
0f
0j
1?"
#2657
1D"
1h
#2658
1K"
1O"
0P"
17"
#2659
0?"
08"
0M"
#2660
1M"
19"
1P"
#2662
0E"
0D"
#2664
1v"
1$#
1w"
b111 |
#2665
0K"
0O"
#2700
0r
0t
#2750
b1000 z
1o
0i
b111 y
b111 m
b111 x
1r
1t
#2753
1X"
1\"
1b"
1e"
1j"
1l"
1o"
1s"
1"#
1%#
b111 l
b111 }
b111 {
#2754
07"
1+"
0h
0~
#2755
18"
0:"
0="
#2756
1?"
#2757
1D"
1n
#2758
1K"
1O"
0P"
09"
1;"
#2759
0<"
0M"
#2761
1|"
1*#
1}"
b1111 |
#2762
0D"
#2764
1E"
#2765
0K"
0O"
#2766
0v"
0$#
0w"
b1110 |
#2767
1N"
1Q"
#2769
0x"
0(#
0z"
0&#
0y"
0{"
b1000 |
#2800
0r
0t
#2850
b1 z
1e
1k
0o
0i
b1000 y
b1000 m
b1000 x
1r
1t
