LS74163 Counter/LS74163.vcd
$date
	Fri Oct 29 11:58:40 2021
$end
$version
	Icarus Verilog
$end
$timescale
	1ns
$end
$scope module AND3 $end
$var wire 1 ! A $end
$var wire 1 " B $end
$var wire 1 # C $end
$var wire 1 $ Z $end
$upscope $end
$scope module AND4 $end
$var wire 1 % A $end
$var wire 1 & B $end
$var wire 1 ' C $end
$var wire 1 ( D $end
$var wire 1 ) Z $end
$upscope $end
$scope module AOI22 $end
$var wire 1 * A1 $end
$var wire 1 + A2 $end
$var wire 1 , B1 $end
$var wire 1 - B2 $end
$var wire 1 . Z $end
$upscope $end
$scope module AOI222 $end
$var wire 1 / A1 $end
$var wire 1 0 A2 $end
$var wire 1 1 B1 $end
$var wire 1 2 B2 $end
$var wire 1 3 C1 $end
$var wire 1 4 C2 $end
$var wire 1 5 Z $end
$upscope $end
$scope module FFDC $end
$var wire 1 6 CK $end
$var wire 1 7 CLR $end
$var wire 1 8 D $end
$var wire 1 9 Q $end
$upscope $end
$scope module FFDP $end
$var wire 1 : CK $end
$var wire 1 ; D $end
$var wire 1 < PRE $end
$var wire 1 = Q $end
$upscope $end
$scope module FFDPC $end
$var wire 1 > CK $end
$var wire 1 ? CLR $end
$var wire 1 @ D $end
$var wire 1 A PRE $end
$var wire 1 B Q $end
$upscope $end
$scope module FFDPCb $end
$var wire 1 C CK $end
$var wire 1 D CLR $end
$var wire 1 E D $end
$var wire 1 F PRE $end
$var reg 1 G Q $end
$upscope $end
$scope module FFDb $end
$var wire 1 H CK $end
$var wire 1 I D $end
$var reg 1 J Q $end
$upscope $end
$scope module HI $end
$var wire 1 K HI $end
$upscope $end
$scope module LO $end
$var wire 1 L LO $end
$upscope $end
$scope module LS74163_test $end
$var wire 4 M count [3:0] $end
$var wire 4 N count_rtl [3:0] $end
$var reg 4 O clk [3:0] $end
$var reg 4 P runs [3:0] $end
$var reg 4 Q sets [3:0] $end
$scope module v1 $end
$var wire 1 R A $end
$var wire 1 S B $end
$var wire 1 T C $end
$var wire 1 U CLK $end
$var wire 1 V CLR_L $end
$var wire 1 W D $end
$var wire 1 X ENP $end
$var wire 1 Y ENT $end
$var wire 1 Z LD_L $end
$var reg 1 [ QA $end
$var reg 1 \ QB $end
$var reg 1 ] QC $end
$var reg 1 ^ QD $end
$upscope $end
$scope module v2 $end
$var wire 1 _ A $end
$var wire 1 ` B $end
$var wire 1 a C $end
$var wire 1 b CLK $end
$var wire 1 c CLR_L $end
$var wire 1 d D $end
$var wire 1 e ENP $end
$var wire 1 f ENT $end
$var wire 1 g LD_L $end
$var wire 1 h QA $end
$var wire 1 i QB $end
$var wire 1 j QC $end
$var wire 1 k QD $end
$var wire 1 l _00_ $end
$var wire 1 m _01_ $end
$var wire 1 n _02_ $end
$var wire 1 o _03_ $end
$var wire 1 p _04_ $end
$var wire 1 q _05_ $end
$var wire 1 r _06_ $end
$var wire 1 s _07_ $end
$var wire 1 t _08_ $end
$var wire 1 u _09_ $end
$var wire 1 v _10_ $end
$var wire 1 w _11_ $end
$var wire 1 x _12_ $end
$var wire 1 y _13_ $end
$var wire 1 z _14_ $end
$var wire 1 { _15_ $end
$var wire 1 | _16_ $end
$scope module _17_ $end
$var wire 1 j A $end
$var wire 1 p Z $end
$upscope $end
$scope module _18_ $end
$var wire 1 e A $end
$var wire 1 f B $end
$var wire 1 q Z $end
$upscope $end
$scope module _19_ $end
$var wire 1 q A $end
$var wire 1 h B $end
$var wire 1 i C $end
$var wire 1 r Z $end
$upscope $end
$scope module _20_ $end
$var wire 1 r A $end
$var wire 1 p B $end
$var wire 1 s Z $end
$upscope $end
$scope module _21_ $end
$var wire 1 g A1 $end
$var wire 1 a A2 $end
$var wire 1 c B $end
$var wire 1 t Z $end
$upscope $end
$scope module _22_ $end
$var wire 1 s A1 $end
$var wire 1 g A2 $end
$var wire 1 t B $end
$var wire 1 n Z $end
$upscope $end
$scope module _23_ $end
$var wire 1 r A $end
$var wire 1 p B $end
$var wire 1 u Z $end
$upscope $end
$scope module _24_ $end
$var wire 1 u A $end
$var wire 1 k B $end
$var wire 1 v Z $end
$upscope $end
$scope module _25_ $end
$var wire 1 d A1 $end
$var wire 1 g A2 $end
$var wire 1 c B $end
$var wire 1 w Z $end
$upscope $end
$scope module _26_ $end
$var wire 1 v A1 $end
$var wire 1 g A2 $end
$var wire 1 w B $end
$var wire 1 o Z $end
$upscope $end
$scope module _27_ $end
$var wire 1 q A $end
$var wire 1 h B $end
$var wire 1 x Z $end
$upscope $end
$scope module _28_ $end
$var wire 1 _ A1 $end
$var wire 1 g A2 $end
$var wire 1 c B $end
$var wire 1 y Z $end
$upscope $end
$scope module _29_ $end
$var wire 1 x A1 $end
$var wire 1 g A2 $end
$var wire 1 y B $end
$var wire 1 l Z $end
$upscope $end
$scope module _30_ $end
$var wire 1 q A $end
$var wire 1 h B $end
$var wire 1 z Z $end
$upscope $end
$scope module _31_ $end
$var wire 1 z A $end
$var wire 1 i B $end
$var wire 1 { Z $end
$upscope $end
$scope module _32_ $end
$var wire 1 ` A1 $end
$var wire 1 g A2 $end
$var wire 1 c B $end
$var wire 1 | Z $end
$upscope $end
$scope module _33_ $end
$var wire 1 { A1 $end
$var wire 1 g A2 $end
$var wire 1 | B $end
$var wire 1 m Z $end
$upscope $end
$scope module _34_ $end
$var wire 1 b CK $end
$var wire 1 o D $end
$var wire 1 k Q $end
$upscope $end
$scope module _35_ $end
$var wire 1 b CK $end
$var wire 1 n D $end
$var wire 1 j Q $end
$upscope $end
$scope module _36_ $end
$var wire 1 b CK $end
$var wire 1 m D $end
$var wire 1 i Q $end
$upscope $end
$scope module _37_ $end
$var wire 1 b CK $end
$var wire 1 l D $end
$var wire 1 h Q $end
$upscope $end
$upscope $end
$upscope $end
$scope module MUX21 $end
$var wire 1 } D0 $end
$var wire 1 ~ D1 $end
$var wire 1 !" S $end
$var wire 1 "" Z $end
$upscope $end
$scope module MUX41 $end
$var wire 1 #" D0 $end
$var wire 1 $" D1 $end
$var wire 1 %" D2 $end
$var wire 1 &" D3 $end
$var wire 1 '" S0 $end
$var wire 1 (" S1 $end
$var wire 1 )" Z $end
$upscope $end
$scope module NAND4 $end
$var wire 1 *" A $end
$var wire 1 +" B $end
$var wire 1 ," C $end
$var wire 1 -" D $end
$var wire 1 ." Z $end
$upscope $end
$scope module NOR3 $end
$var wire 1 /" A $end
$var wire 1 0" B $end
$var wire 1 1" C $end
$var wire 1 2" Z $end
$upscope $end
$scope module NOR4 $end
$var wire 1 3" A $end
$var wire 1 4" B $end
$var wire 1 5" C $end
$var wire 1 6" D $end
$var wire 1 7" Z $end
$upscope $end
$scope module OAI22 $end
$var wire 1 8" A1 $end
$var wire 1 9" A2 $end
$var wire 1 :" B1 $end
$var wire 1 ;" B2 $end
$var wire 1 <" Z $end
$upscope $end
$scope module OAI222 $end
$var wire 1 =" A1 $end
$var wire 1 >" A2 $end
$var wire 1 ?" B1 $end
$var wire 1 @" B2 $end
$var wire 1 A" C1 $end
$var wire 1 B" C2 $end
$var wire 1 C" Z $end
$upscope $end
$scope module OR2 $end
$var wire 1 D" A $end
$var wire 1 E" B $end
$var wire 1 F" Z $end
$upscope $end
$scope module OR3 $end
$var wire 1 G" A $end
$var wire 1 H" B $end
$var wire 1 I" C $end
$var wire 1 J" Z $end
$upscope $end
$scope module OR4 $end
$var wire 1 K" A $end
$var wire 1 L" B $end
$var wire 1 M" C $end
$var wire 1 N" D $end
$var wire 1 O" Z $end
$upscope $end
$enddefinitions $end
#0
$dumpvars
xO"
zN"
zM"
zL"
zK"
xJ"
zI"
zH"
zG"
xF"
zE"
zD"
xC"
zB"
zA"
z@"
z?"
z>"
z="
x<"
z;"
z:"
z9"
z8"
x7"
z6"
z5"
z4"
z3"
x2"
z1"
z0"
z/"
x."
z-"
z,"
z+"
z*"
x)"
z("
z'"
z&"
z%"
z$"
z#"
x""
z!"
z~
z}
z|
x{
xz
zy
xx
zw
xv
xu
zt
xs
xr
zq
zp
xo
xn
xm
xl
zk
zj
zi
zh
0g
1f
1e
1d
1c
0b
0a
0`
1_
x^
x]
x\
x[
0Z
1Y
1X
1W
1V
0U
0T
0S
1R
b1011 Q
b0 P
b0 O
bx N
bz M
0L
1K
xJ
zI
zH
xG
zF
zE
zD
zC
zB
zA
z@
z?
z>
z=
z<
z;
z:
z9
z8
z7
z6
x5
z4
z3
z2
z1
z0
z/
x.
z-
z,
z+
z*
x)
z(
z'
z&
z%
x$
z#
z"
z!
$end
#1
1q
#2
1|
0y
0w
1t
#4
0m
1l
1o
0n
#1000
1[
0\
0]
1^
b1001 N
1U
1b
b1 O
#1002
0j
0i
bz00z M
#1003
1r
1p
1k
1h
b1001 M
#1004
0u
#1005
0z
#1006
1s
1x
#1007
0v
#1008
0{
#2000
0U
0b
b10 O
#3000
1U
1b
b11 O
#4000
0U
0b
b100 O
#5000
1U
1b
b101 O
#6000
0U
0b
b110 O
#7000
1U
1b
b111 O
#8000
0U
0b
b1000 O
#9000
1U
1b
b1001 O
#10000
0U
0b
b1010 O
#11000
1U
1b
b1011 O
#12000
0U
0b
b1100 O
#13000
1U
1b
b1101 O
#14000
0U
0b
b1110 O
#15000
1U
1b
b1111 O
#16000
1Z
1g
b1111 Q
#16002
0t
0l
0|
#16004
1m
#17000
0U
0b
b0 O
#18000
0[
1\
b1010 N
1U
1b
b1 O
#18002
0h
b1000 M
#18003
1z
1i
b1010 M
#18005
0x
#18007
1l
#19000
0U
0b
b10 O
#20000
1[
b1011 N
1U
1b
b11 O
#20003
1h
b1011 M
#20005
0z
#20006
0r
1x
#20008
0l
1{
#20009
0s
#20010
0m
#20011
1n
#21000
0U
0b
b100 O
#22000
0[
0\
1]
b1100 N
1U
1b
b101 O
#22002
0i
0h
b1000 M
#22003
1r
1z
1j
b1100 M
#22004
0p
#22005
0x
#22007
1l
#23000
0U
0b
b110 O
#24000
1[
b1101 N
1U
1b
b111 O
#24003
1h
b1101 M
#24005
0z
#24006
1x
#24008
0l
0{
#24010
1m
#25000
0U
0b
b1000 O
#26000
0[
1\
b1110 N
1U
1b
b1001 O
#26002
0h
b1100 M
#26003
1z
1i
b1110 M
#26005
0x
#26007
1l
#27000
0U
0b
b1010 O
#28000
1[
b1111 N
1U
1b
b1011 O
#28003
1h
b1111 M
#28005
0z
#28006
0r
1x
#28008
0l
1u
1{
#28009
1s
#28010
0m
#28011
0n
1v
#28013
0o
#29000
0U
0b
b1100 O
#30000
0[
0\
0]
0^
b0 N
1U
1b
b1101 O
#30002
0k
0j
0i
0h
b0 M
#30003
1r
1z
1p
#30004
0u
#30005
0x
#30007
1l
#31000
0U
0b
b1110 O
#32000
1[
b1 N
1U
1b
b1 P
b1111 O
#32003
1h
b1 M
#32005
0z
#32006
1x
#32008
0l
0{
#32010
1m
#33000
0X
0e
b1110 Q
#33002
0q
#33003
1z
#33005
0x
#33006
1{
#33007
1l
#33008
0m
#34000
0U
0b
b0 O
#35000
1U
1b
b1 O
#36000
0U
0b
b10 O
#37000
1U
1b
b11 O
#38000
0U
0b
b100 O
#39000
1U
1b
b101 O
#40000
0U
0b
b110 O
#41000
1U
1b
b111 O
#42000
0U
0b
b1000 O
#43000
1U
1b
b1001 O
#44000
0U
0b
b1010 O
#45000
1U
1b
b1011 O
#46000
0U
0b
b1100 O
#47000
1U
1b
b1101 O
#48000
0U
0b
b1110 O
#49000
1U
1b
b1111 O
#50000
1X
1e
b1111 Q
#50001
1q
#50003
0z
#50004
1x
#50006
0l
0{
#50008
1m
#51000
0U
0b
b0 O
#52000
0[
1\
b10 N
1U
1b
b1 O
#52002
0h
b0 M
#52003
1z
1i
b10 M
#52005
0x
#52007
1l
#53000
0U
0b
b10 O
#54000
1[
b11 N
1U
1b
b11 O
#54003
1h
b11 M
#54005
0z
#54006
0r
1x
#54008
0l
1{
#54009
0s
#54010
0m
#54011
1n
#55000
0U
0b
b100 O
#56000
0[
0\
1]
b100 N
1U
1b
b101 O
#56002
0i
0h
b0 M
#56003
1r
1z
1j
b100 M
#56004
0p
#56005
0x
#56007
1l
#57000
0U
0b
b110 O
#58000
1[
b101 N
1U
1b
b111 O
#58003
1h
b101 M
#58005
0z
#58006
1x
#58008
0l
0{
#58010
1m
#59000
0U
0b
b1000 O
#60000
0[
1\
b110 N
1U
1b
b1001 O
#60002
0h
b100 M
#60003
1z
1i
b110 M
#60005
0x
#60007
1l
#61000
0U
0b
b1010 O
#62000
1[
b111 N
1U
1b
b1011 O
#62003
1h
b111 M
#62005
0z
#62006
0r
1x
#62008
0l
1u
1{
#62009
1s
#62010
0m
#62011
0n
0v
#62013
1o
#63000
0U
0b
b1100 O
#64000
0[
0\
0]
1^
b1000 N
1U
1b
b1101 O
#64002
0j
0i
0h
b0 M
#64003
1r
1z
1p
1k
b1000 M
#64004
0u
#64005
0x
#64007
1l
#65000
0U
0b
b1110 O
#66000
1[
b1001 N
1U
1b
b10 P
b1111 O
#66003
1h
b1001 M
#66005
0z
#66006
1x
#66008
0l
0{
#66010
1m
#67000
0Y
0f
b1101 Q
#67002
0q
#67003
1z
#67005
0x
#67006
1{
#67007
1l
#67008
0m
#68000
0U
0b
b0 O
#69000
1U
1b
b1 O
#70000
0U
0b
b10 O
#71000
1U
1b
b11 O
#72000
0U
0b
b100 O
#73000
1U
1b
b101 O
#74000
0U
0b
b110 O
#75000
1U
1b
b111 O
#76000
0U
0b
b1000 O
#77000
1U
1b
b1001 O
#78000
0U
0b
b1010 O
#79000
1U
1b
b1011 O
#80000
0U
0b
b1100 O
#81000
1U
1b
b1101 O
#82000
0U
0b
b1110 O
#83000
1U
1b
b1111 O
#84000
1Y
1f
b1111 Q
#84001
1q
#84003
0z
#84004
1x
#84006
0l
0{
#84008
1m
#85000
0U
0b
b0 O
#86000
0[
1\
b1010 N
1U
1b
b1 O
#86002
0h
b1000 M
#86003
1z
1i
b1010 M
#86005
0x
#86007
1l
#87000
0U
0b
b10 O
#88000
1[
b1011 N
1U
1b
b11 O
#88003
1h
b1011 M
#88005
0z
#88006
0r
1x
#88008
0l
1{
#88009
0s
#88010
0m
#88011
1n
#89000
0U
0b
b100 O
#90000
0[
0\
1]
b1100 N
1U
1b
b101 O
#90002
0i
0h
b1000 M
#90003
1r
1z
1j
b1100 M
#90004
0p
#90005
0x
#90007
1l
#91000
0U
0b
b110 O
#92000
1[
b1101 N
1U
1b
b111 O
#92003
1h
b1101 M
#92005
0z
#92006
1x
#92008
0l
0{
#92010
1m
#93000
0U
0b
b1000 O
#94000
0[
1\
b1110 N
1U
1b
b1001 O
#94002
0h
b1100 M
#94003
1z
1i
b1110 M
#94005
0x
#94007
1l
#95000
0U
0b
b1010 O
#96000
1[
b1111 N
1U
1b
b1011 O
#96003
1h
b1111 M
#96005
0z
#96006
0r
1x
#96008
0l
1u
1{
#96009
1s
#96010
0m
#96011
0n
1v
#96013
0o
#97000
0U
0b
b1100 O
#98000
0[
0\
0]
0^
b0 N
1U
1b
b1101 O
#98002
0k
0j
0i
0h
b0 M
#98003
1r
1z
1p
#98004
0u
#98005
0x
#98007
1l
#99000
0U
0b
b1110 O
#100000
1[
b1 N
1U
1b
b11 P
b1111 O
#100003
1h
b1 M
#100005
0z
#100006
1x
#100008
0l
0{
#100010
1m
#101000
0Y
0X
0f
0e
b1100 Q
#101002
0q
#101003
1z
#101005
0x
#101006
1{
#101007
1l
#101008
0m
#102000
0U
0b
b0 O
#103000
1U
1b
b1 O
#104000
0U
0b
b10 O
#105000
1U
1b
b11 O
#106000
0U
0b
b100 O
#107000
1U
1b
b101 O
#108000
0U
0b
b110 O
#109000
1U
1b
b111 O
#110000
0U
0b
b1000 O
#111000
1U
1b
b1001 O
#112000
0U
0b
b1010 O
#113000
1U
1b
b1011 O
#114000
0U
0b
b1100 O
#115000
1U
1b
b1101 O
#116000
0U
0b
b1110 O
#117000
1U
1b
b1111 O
#118000
1Y
1X
1f
1e
b1111 Q
#118001
1q
#118003
0z
#118004
1x
#118006
0l
0{
#118008
1m
#119000
0U
0b
b0 O
#120000
0[
1\
b10 N
1U
1b
b1 O
#120002
0h
b0 M
#120003
1z
1i
b10 M
#120005
0x
#120007
1l
#121000
0U
0b
b10 O
#122000
1[
b11 N
1U
1b
b11 O
#122003
1h
b11 M
#122005
0z
#122006
0r
1x
#122008
0l
1{
#122009
0s
#122010
0m
#122011
1n
#123000
0U
0b
b100 O
#124000
0[
0\
1]
b100 N
1U
1b
b101 O
#124002
0i
0h
b0 M
#124003
1r
1z
1j
b100 M
#124004
0p
#124005
0x
#124007
1l
#125000
0U
0b
b110 O
#126000
1[
b101 N
1U
1b
b111 O
#126003
1h
b101 M
#126005
0z
#126006
1x
#126008
0l
0{
#126010
1m
#127000
0U
0b
b1000 O
#128000
0[
1\
b110 N
1U
1b
b1001 O
#128002
0h
b100 M
#128003
1z
1i
b110 M
#128005
0x
#128007
1l
#129000
0U
0b
b1010 O
#130000
1[
b111 N
1U
1b
b1011 O
#130003
1h
b111 M
#130005
0z
#130006
0r
1x
#130008
0l
1u
1{
#130009
1s
#130010
0m
#130011
0n
0v
#130013
1o
#131000
0U
0b
b1100 O
#132000
0[
0\
0]
1^
b1000 N
1U
1b
b1101 O
#132002
0j
0i
0h
b0 M
#132003
1r
1z
1p
1k
b1000 M
#132004
0u
#132005
0x
#132007
1l
#133000
0U
0b
b1110 O
#134000
1[
b1001 N
1U
1b
b100 P
b1111 O
#134003
1h
b1001 M
#134005
0z
#134006
1x
#134008
0l
0{
#134010
1m
#135000
0Z
0g
b1011 Q
#135002
1t
1n
1l
1|
#135004
0n
0m
#136000
0U
0b
b0 O
#137000
1U
1b
b1 O
#138000
0U
0b
b10 O
#139000
1U
1b
b11 O
#140000
0U
0b
b100 O
#141000
1U
1b
b101 O
#142000
0U
0b
b110 O
#143000
1U
1b
b111 O
#144000
0U
0b
b1000 O
#145000
1U
1b
b1001 O
#146000
0U
0b
b1010 O
#147000
1U
1b
b1011 O
#148000
0U
0b
b1100 O
#149000
1U
1b
b1101 O
#150000
0U
0b
b1110 O
#151000
1U
1b
b1111 O
#152000
1Z
1g
b1111 Q
#152002
0t
0l
0|
#152004
1m
#153000
0U
0b
b0 O
#154000
0[
1\
b1010 N
1U
1b
b1 O
#154002
0h
b1000 M
#154003
1z
1i
b1010 M
#154005
0x
#154007
1l
#155000
0U
0b
b10 O
#156000
1[
b1011 N
1U
1b
b11 O
#156003
1h
b1011 M
#156005
0z
#156006
0r
1x
#156008
0l
1{
#156009
0s
#156010
0m
#156011
1n
#157000
0U
0b
b100 O
#158000
0[
0\
1]
b1100 N
1U
1b
b101 O
#158002
0i
0h
b1000 M
#158003
1r
1z
1j
b1100 M
#158004
0p
#158005
0x
#158007
1l
#159000
0U
0b
b110 O
#160000
1[
b1101 N
1U
1b
b111 O
#160003
1h
b1101 M
#160005
0z
#160006
1x
#160008
0l
0{
#160010
1m
#161000
0U
0b
b1000 O
#162000
0[
1\
b1110 N
1U
1b
b1001 O
#162002
0h
b1100 M
#162003
1z
1i
b1110 M
#162005
0x
#162007
1l
#163000
0U
0b
b1010 O
#164000
1[
b1111 N
1U
1b
b1011 O
#164003
1h
b1111 M
#164005
0z
#164006
0r
1x
#164008
0l
1u
1{
#164009
1s
#164010
0m
#164011
0n
1v
#164013
0o
#165000
0U
0b
b1100 O
#166000
0[
0\
0]
0^
b0 N
1U
1b
b1101 O
#166002
0k
0j
0i
0h
b0 M
#166003
1r
1z
1p
#166004
0u
#166005
0x
#166007
1l
#167000
0U
0b
b1110 O
#168000
1[
b1 N
1U
1b
b101 P
b1111 O
#168003
1h
b1 M
#168005
0z
#168006
1x
#168008
0l
0{
#168010
1m
#169000
0Z
0X
0g
0e
b1010 Q
#169002
1t
1n
1o
1l
1|
0q
#169003
1z
#169004
0n
0m
#169005
0x
#169006
1{
#170000
0U
0b
b0 O
#171000
1^
b1001 N
1U
1b
b1 O
#171003
1k
b1001 M
#171006
0v
#172000
0U
0b
b10 O
#173000
1U
1b
b11 O
#174000
0U
0b
b100 O
#175000
1U
1b
b101 O
#176000
0U
0b
b110 O
#177000
1U
1b
b111 O
#178000
0U
0b
b1000 O
#179000
1U
1b
b1001 O
#180000
0U
0b
b1010 O
#181000
1U
1b
b1011 O
#182000
0U
0b
b1100 O
#183000
1U
1b
b1101 O
#184000
0U
0b
b1110 O
#185000
1U
1b
b1111 O
#186000
1Z
1X
1g
1e
b1111 Q
#186001
1q
#186002
0t
0|
#186003
0z
#186004
1x
#186006
0l
0{
#186008
1m
#187000
0U
0b
b0 O
#188000
0[
1\
b1010 N
1U
1b
b1 O
#188002
0h
b1000 M
#188003
1z
1i
b1010 M
#188005
0x
#188007
1l
#189000
0U
0b
b10 O
#190000
1[
b1011 N
1U
1b
b11 O
#190003
1h
b1011 M
#190005
0z
#190006
0r
1x
#190008
0l
1{
#190009
0s
#190010
0m
#190011
1n
#191000
0U
0b
b100 O
#192000
0[
0\
1]
b1100 N
1U
1b
b101 O
#192002
0i
0h
b1000 M
#192003
1r
1z
1j
b1100 M
#192004
0p
#192005
0x
#192007
1l
#193000
0U
0b
b110 O
#194000
1[
b1101 N
1U
1b
b111 O
#194003
1h
b1101 M
#194005
0z
#194006
1x
#194008
0l
0{
#194010
1m
#195000
0U
0b
b1000 O
#196000
0[
1\
b1110 N
1U
1b
b1001 O
#196002
0h
b1100 M
#196003
1z
1i
b1110 M
#196005
0x
#196007
1l
#197000
0U
0b
b1010 O
#198000
1[
b1111 N
1U
1b
b1011 O
#198003
1h
b1111 M
#198005
0z
#198006
0r
1x
#198008
0l
1u
1{
#198009
1s
#198010
0m
#198011
0n
1v
#198013
0o
#199000
0U
0b
b1100 O
#200000
0[
0\
0]
0^
b0 N
1U
1b
b1101 O
#200002
0k
0j
0i
0h
b0 M
#200003
1r
1z
1p
#200004
0u
#200005
0x
#200007
1l
#201000
0U
0b
b1110 O
#202000
1[
b1 N
1U
1b
b110 P
b1111 O
#202003
1h
b1 M
#202005
0z
#202006
1x
#202008
0l
0{
#202010
1m
#203000
0Z
0Y
0g
0f
b1001 Q
#203002
1t
1n
1o
1l
1|
0q
#203003
1z
#203004
0n
0m
#203005
0x
#203006
1{
#204000
0U
0b
b0 O
#205000
1^
b1001 N
1U
1b
b1 O
#205003
1k
b1001 M
#205006
0v
#206000
0U
0b
b10 O
#207000
1U
1b
b11 O
#208000
0U
0b
b100 O
#209000
1U
1b
b101 O
#210000
0U
0b
b110 O
#211000
1U
1b
b111 O
#212000
0U
0b
b1000 O
#213000
1U
1b
b1001 O
#214000
0U
0b
b1010 O
#215000
1U
1b
b1011 O
#216000
0U
0b
b1100 O
#217000
1U
1b
b1101 O
#218000
0U
0b
b1110 O
#219000
1U
1b
b1111 O
#220000
1Z
1Y
1g
1f
b1111 Q
#220001
1q
#220002
0t
0|
#220003
0z
#220004
1x
#220006
0l
0{
#220008
1m
#221000
0U
0b
b0 O
#222000
0[
1\
b1010 N
1U
1b
b1 O
#222002
0h
b1000 M
#222003
1z
1i
b1010 M
#222005
0x
#222007
1l
#223000
0U
0b
b10 O
#224000
1[
b1011 N
1U
1b
b11 O
#224003
1h
b1011 M
#224005
0z
#224006
0r
1x
#224008
0l
1{
#224009
0s
#224010
0m
#224011
1n
#225000
0U
0b
b100 O
#226000
0[
0\
1]
b1100 N
1U
1b
b101 O
#226002
0i
0h
b1000 M
#226003
1r
1z
1j
b1100 M
#226004
0p
#226005
0x
#226007
1l
#227000
0U
0b
b110 O
#228000
1[
b1101 N
1U
1b
b111 O
#228003
1h
b1101 M
#228005
0z
#228006
1x
#228008
0l
0{
#228010
1m
#229000
0U
0b
b1000 O
#230000
0[
1\
b1110 N
1U
1b
b1001 O
#230002
0h
b1100 M
#230003
1z
1i
b1110 M
#230005
0x
#230007
1l
#231000
0U
0b
b1010 O
#232000
1[
b1111 N
1U
1b
b1011 O
#232003
1h
b1111 M
#232005
0z
#232006
0r
1x
#232008
0l
1u
1{
#232009
1s
#232010
0m
#232011
0n
1v
#232013
0o
#233000
0U
0b
b1100 O
#234000
0[
0\
0]
0^
b0 N
1U
1b
b1101 O
#234002
0k
0j
0i
0h
b0 M
#234003
1r
1z
1p
#234004
0u
#234005
0x
#234007
1l
#235000
0U
0b
b1110 O
#236000
1[
b1 N
1U
1b
b111 P
b1111 O
#236003
1h
b1 M
#236005
0z
#236006
1x
#236008
0l
0{
#236010
1m
#237000
0Z
0Y
0X
0g
0f
0e
b1000 Q
#237002
1t
1n
1o
1l
1|
0q
#237003
1z
#237004
0n
0m
#237005
0x
#237006
1{
#238000
0U
0b
b0 O
#239000
1^
b1001 N
1U
1b
b1 O
#239003
1k
b1001 M
#239006
0v
#240000
0U
0b
b10 O
#241000
1U
1b
b11 O
#242000
0U
0b
b100 O
#243000
1U
1b
b101 O
#244000
0U
0b
b110 O
#245000
1U
1b
b111 O
#246000
0U
0b
b1000 O
#247000
1U
1b
b1001 O
#248000
0U
0b
b1010 O
#249000
1U
1b
b1011 O
#250000
0U
0b
b1100 O
#251000
1U
1b
b1101 O
#252000
0U
0b
b1110 O
#253000
1U
1b
b1111 O
#254000
1Z
1Y
1X
1g
1f
1e
b1111 Q
#254001
1q
#254002
0t
0|
#254003
0z
#254004
1x
#254006
0l
0{
#254008
1m
#255000
0U
0b
b0 O
#256000
0[
1\
b1010 N
1U
1b
b1 O
#256002
0h
b1000 M
#256003
1z
1i
b1010 M
#256005
0x
#256007
1l
#257000
0U
0b
b10 O
#258000
1[
b1011 N
1U
1b
b11 O
#258003
1h
b1011 M
#258005
0z
#258006
0r
1x
#258008
0l
1{
#258009
0s
#258010
0m
#258011
1n
#259000
0U
0b
b100 O
#260000
0[
0\
1]
b1100 N
1U
1b
b101 O
#260002
0i
0h
b1000 M
#260003
1r
1z
1j
b1100 M
#260004
0p
#260005
0x
#260007
1l
#261000
0U
0b
b110 O
#262000
1[
b1101 N
1U
1b
b111 O
#262003
1h
b1101 M
#262005
0z
#262006
1x
#262008
0l
0{
#262010
1m
#263000
0U
0b
b1000 O
#264000
0[
1\
b1110 N
1U
1b
b1001 O
#264002
0h
b1100 M
#264003
1z
1i
b1110 M
#264005
0x
#264007
1l
#265000
0U
0b
b1010 O
#266000
1[
b1111 N
1U
1b
b1011 O
#266003
1h
b1111 M
#266005
0z
#266006
0r
1x
#266008
0l
1u
1{
#266009
1s
#266010
0m
#266011
0n
1v
#266013
0o
#267000
0U
0b
b1100 O
#268000
0[
0\
0]
0^
b0 N
1U
1b
b1101 O
#268002
0k
0j
0i
0h
b0 M
#268003
1r
1z
1p
#268004
0u
#268005
0x
#268007
1l
#269000
0U
0b
b1110 O
#270000
1[
b1 N
1U
1b
b1000 P
b1111 O
#270003
1h
b1 M
#270005
0z
#270006
1x
#270008
0l
0{
#270010
1m
#271000
0V
0c
b111 Q
#271002
1t
1w
1y
1|
#271004
0m
#272000
0U
0b
b0 O
#273000
0[
b0 N
1U
1b
b1 O
#273002
0h
b0 M
#273003
1z
#273005
0x
#273006
1{
#274000
0U
0b
b10 O
#275000
1U
1b
b11 O
#276000
0U
0b
b100 O
#277000
1U
1b
b101 O
#278000
0U
0b
b110 O
#279000
1U
1b
b111 O
#280000
0U
0b
b1000 O
#281000
1U
1b
b1001 O
#282000
0U
0b
b1010 O
#283000
1U
1b
b1011 O
#284000
0U
0b
b1100 O
#285000
1U
1b
b1101 O
#286000
0U
0b
b1110 O
#287000
1U
1b
b1111 O
#288000
1V
1c
b1111 Q
#288002
0t
0w
0y
0|
#288004
1l
#289000
0U
0b
b0 O
#290000
1[
b1 N
1U
1b
b1 O
#290003
1h
b1 M
#290005
0z
#290006
1x
#290008
0l
0{
#290010
1m
#291000
0U
0b
b10 O
#292000
0[
1\
b10 N
1U
1b
b11 O
#292002
0h
b0 M
#292003
1z
1i
b10 M
#292005
0x
#292007
1l
#293000
0U
0b
b100 O
#294000
1[
b11 N
1U
1b
b101 O
#294003
1h
b11 M
#294005
0z
#294006
0r
1x
#294008
0l
1{
#294009
0s
#294010
0m
#294011
1n
#295000
0U
0b
b110 O
#296000
0[
0\
1]
b100 N
1U
1b
b111 O
#296002
0i
0h
b0 M
#296003
1r
1z
1j
b100 M
#296004
0p
#296005
0x
#296007
1l
#297000
0U
0b
b1000 O
#298000
1[
b101 N
1U
1b
b1001 O
#298003
1h
b101 M
#298005
0z
#298006
1x
#298008
0l
0{
#298010
1m
#299000
0U
0b
b1010 O
#300000
0[
1\
b110 N
1U
1b
b1011 O
#300002
0h
b100 M
#300003
1z
1i
b110 M
#300005
0x
#300007
1l
#301000
0U
0b
b1100 O
#302000
1[
b111 N
1U
1b
b1101 O
#302003
1h
b111 M
#302005
0z
#302006
0r
1x
#302008
0l
1u
1{
#302009
1s
#302010
0m
#302011
0n
0v
#302013
1o
#303000
0U
0b
b1110 O
#304000
0[
0\
0]
1^
b1000 N
1U
1b
b1001 P
b1111 O
#304002
0j
0i
0h
b0 M
#304003
1r
1z
1p
1k
b1000 M
#304004
0u
#304005
0x
#304007
1l
#305000
0V
0X
0c
0e
b110 Q
#305002
1t
1w
1y
1|
0q
#305004
0o
0l
#305005
1x
#306000
0U
0b
b0 O
#307000
0^
b0 N
1U
1b
b1 O
#307002
0k
b0 M
#307005
1v
#308000
0U
0b
b10 O
#309000
1U
1b
b11 O
#310000
0U
0b
b100 O
#311000
1U
1b
b101 O
#312000
0U
0b
b110 O
#313000
1U
1b
b111 O
#314000
0U
0b
b1000 O
#315000
1U
1b
b1001 O
#316000
0U
0b
b1010 O
#317000
1U
1b
b1011 O
#318000
0U
0b
b1100 O
#319000
1U
1b
b1101 O
#320000
0U
0b
b1110 O
#321000
1U
1b
b1111 O
#322000
1V
1X
1c
1e
b1111 Q
#322001
1q
